{
  "$schema": "http://json-schema.org/draft-04/schema#",
  "type": "object",
  "properties": {
    "type": {
      "type": "string"
    },
    "title": {
      "type": "string"
    },
    "status": {
      "type": "integer"
    },
    "detail": {
      "type": "string"
    },
    "instance": {
      "type": "string"
    },
    "timestampUtc": {
      "type": "string"
    },
    "causes": {
      "type": "array",
      "items": [
        {
          "type": "object",
          "properties": {
            "type": {
              "type": "string"
            },
            "title": {
              "type": "string"
            },
            "status": {
              "type": "integer"
            },
            "detail": {
              "type": "string"
            },
            "instance": {
              "type": "string"
            },
            "timestampUtc": {
              "type": "string"
            },
            "causes": {
              "type": "array",
              "items": {}
            }
          },
          "required": [
            "type",
            "status",
            "timestampUtc"
          ]
        }
      ]
    }
  },
  "required": [
    "type",
    "status",
    "timestampUtc"
  ]
}